EESchema Schematic File Version 2
LIBS:Audio
LIBS:Connectors
LIBS:Interface
LIBS:LEDs
LIBS:PMIC
LIBS:STM32F
LIBS:Switches
LIBS:Tag-Connect
LIBS:Transistors
LIBS:power
LIBS:device
LIBS:transistors
LIBS:conn
LIBS:linear
LIBS:regul
LIBS:74xx
LIBS:cmos4000
LIBS:adc-dac
LIBS:memory
LIBS:xilinx
LIBS:special
LIBS:microcontrollers
LIBS:dsp
LIBS:microchip
LIBS:analog_switches
LIBS:motorola
LIBS:texas
LIBS:intel
LIBS:audio
LIBS:interface
LIBS:digital-audio
LIBS:philips
LIBS:display
LIBS:cypress
LIBS:siliconi
LIBS:opto
LIBS:atmel
LIBS:contrib
LIBS:valves
LIBS:PRT-4A-Fox-cache
EELAYER 25 0
EELAYER END
$Descr USLetter 11000 8500
encoding utf-8
Sheet 1 1
Title "PRT-4A Fox Transmitter Conversion"
Date "Sunday, March 22, 2015"
Rev "1.0"
Comp "Mark J. Blair NF6X"
Comment1 ""
Comment2 ""
Comment3 ""
Comment4 ""
$EndDescr
$Comp
L POT R5
U 1 1 54E1725E
P 9350 4700
F 0 "R5" V 9200 4850 50  0000 C CNN
F 1 "1k" V 9450 4850 50  0000 C CNN
F 2 "NF6X_Potentiometers:Potentiometer_Bourns_3314J" H 9350 4700 60  0001 C CNN
F 3 "" H 9350 4700 60  0000 C CNN
F 4 "3314J-1-102E" V 9350 4700 60  0001 C CNN "PartNum"
	1    9350 4700
	0    1    1    0   
$EndComp
$Comp
L Hirose_DF11-6DP-2DSA J1
U 1 1 54E231A7
P 1700 4650
F 0 "J1" H 1700 4900 60  0000 C CNN
F 1 "Hirose_DF11-6DP-2DSA" H 1600 4400 60  0001 C CNN
F 2 "NF6X_Connectors:Hirose_DF11-6DP-2DSA" H 1700 4650 60  0001 C CNN
F 3 "" H 1700 4650 60  0000 C CNN
F 4 "DF11-6DP-2DSA(24)" H 1700 4650 60  0001 C CNN "PartNum"
	1    1700 4650
	1    0    0    -1  
$EndComp
$Comp
L Hirose_DF3A-2P-2DSA J2
U 1 1 54E231CC
P 1750 5250
F 0 "J2" H 1750 5400 60  0000 C CNN
F 1 "Hirose_DF3A-2P-2DSA" H 1750 4950 60  0001 C CNN
F 2 "NF6X_Connectors:Hirose_DF3A-2P-2DSA" H 1750 5250 60  0001 C CNN
F 3 "" H 1750 5250 60  0000 C CNN
F 4 "DF3A-2P-2DSA" H 1750 5250 60  0001 C CNN "PartNum"
	1    1750 5250
	1    0    0    -1  
$EndComp
$Comp
L GND #PWR01
U 1 1 54E26B4F
P 1500 5750
F 0 "#PWR01" H 1500 5500 60  0001 C CNN
F 1 "GND" H 1500 5600 60  0000 C CNN
F 2 "" H 1500 5750 60  0000 C CNN
F 3 "" H 1500 5750 60  0000 C CNN
	1    1500 5750
	1    0    0    -1  
$EndComp
Text Notes 600  5400 0    60   ~ 0
15VDC (10x AAA)\nBattery Input
$Comp
L GND #PWR02
U 1 1 54E26D58
P 1250 4800
F 0 "#PWR02" H 1250 4550 60  0001 C CNN
F 1 "GND" H 1250 4650 60  0000 C CNN
F 2 "" H 1250 4800 60  0000 C CNN
F 3 "" H 1250 4800 60  0000 C CNN
	1    1250 4800
	1    0    0    -1  
$EndComp
$Comp
L GND #PWR03
U 1 1 54E26D88
P 3650 4950
F 0 "#PWR03" H 3650 4700 60  0001 C CNN
F 1 "GND" H 3650 4800 60  0000 C CNN
F 2 "" H 3650 4950 60  0000 C CNN
F 3 "" H 3650 4950 60  0000 C CNN
	1    3650 4950
	1    0    0    -1  
$EndComp
$Comp
L +3V3 #PWR04
U 1 1 54E26FA8
P 4350 4350
F 0 "#PWR04" H 4350 4200 60  0001 C CNN
F 1 "+3V3" H 4350 4490 60  0000 C CNN
F 2 "" H 4350 4350 60  0000 C CNN
F 3 "" H 4350 4350 60  0000 C CNN
	1    4350 4350
	1    0    0    -1  
$EndComp
$Comp
L +3V3 #PWR05
U 1 1 54E27015
P 7600 1950
F 0 "#PWR05" H 7600 1800 60  0001 C CNN
F 1 "+3V3" H 7600 2090 60  0000 C CNN
F 2 "" H 7600 1950 60  0000 C CNN
F 3 "" H 7600 1950 60  0000 C CNN
	1    7600 1950
	1    0    0    -1  
$EndComp
$Comp
L DIODESCH D1
U 1 1 54E273BF
P 1750 5700
F 0 "D1" H 1750 5800 40  0000 C CNN
F 1 "B140-13-F" H 1750 5600 40  0001 C CNN
F 2 "Diodes_SMD:Diode-SMA_Standard" H 1750 5700 60  0001 C CNN
F 3 "" H 1750 5700 60  0000 C CNN
F 4 "B140-13-F" H 1750 5700 60  0001 C CNN "PartNum"
	1    1750 5700
	1    0    0    -1  
$EndComp
$Comp
L LM1084IS-3.3/NOPB U1
U 1 1 54E2A2EF
P 3650 4600
F 0 "U1" H 3850 4400 40  0000 C CNN
F 1 "3.3V" H 3800 4300 40  0000 L CNN
F 2 "NF6X_TO-Packages:TO-263-4" H 3650 4700 30  0001 C CIN
F 3 "" H 3650 4600 60  0000 C CNN
F 4 "LM1084ISX-3.3/NOPB" H 3650 4600 60  0001 C CNN "PartNum"
	1    3650 4600
	1    0    0    -1  
$EndComp
$Comp
L CAPAPOL C1
U 1 1 54E2B495
P 3100 4850
F 0 "C1" H 3150 4950 40  0000 L CNN
F 1 "10uF 20V 10%" H 3150 4750 40  0000 L CNN
F 2 "Capacitors_Tantalum_SMD:TantalC_SizeB_EIA-3528_Reflow" H 3200 4700 30  0001 C CNN
F 3 "" H 3100 4850 300 0000 C CNN
F 4 "F931D106KBA" H 3100 4850 60  0001 C CNN "PartNum"
	1    3100 4850
	1    0    0    -1  
$EndComp
$Comp
L CAPAPOL C2
U 1 1 54E2B6CA
P 4350 4850
F 0 "C2" H 4400 4950 40  0000 L CNN
F 1 "10uF 20V 10%" H 4400 4750 40  0000 L CNN
F 2 "Capacitors_Tantalum_SMD:TantalC_SizeB_EIA-3528_Reflow" H 4450 4700 30  0001 C CNN
F 3 "" H 4350 4850 300 0000 C CNN
F 4 "F931D106KBA" H 4350 4850 60  0001 C CNN "PartNum"
	1    4350 4850
	1    0    0    -1  
$EndComp
$Comp
L GND #PWR06
U 1 1 54E2B737
P 3100 5150
F 0 "#PWR06" H 3100 4900 60  0001 C CNN
F 1 "GND" H 3100 5000 60  0000 C CNN
F 2 "" H 3100 5150 60  0000 C CNN
F 3 "" H 3100 5150 60  0000 C CNN
	1    3100 5150
	1    0    0    -1  
$EndComp
$Comp
L GND #PWR07
U 1 1 54E2B758
P 4350 5150
F 0 "#PWR07" H 4350 4900 60  0001 C CNN
F 1 "GND" H 4350 5000 60  0000 C CNN
F 2 "" H 4350 5150 60  0000 C CNN
F 3 "" H 4350 5150 60  0000 C CNN
	1    4350 5150
	1    0    0    -1  
$EndComp
$Comp
L R R4
U 1 1 54E2C01B
P 9350 4100
F 0 "R4" V 9430 4100 40  0000 C CNN
F 1 "100k 5%" V 9357 4101 40  0000 C CNN
F 2 "Resistors_SMD:R_1206" V 9280 4100 30  0001 C CNN
F 3 "" H 9350 4100 30  0000 C CNN
F 4 "ERJ-8GEYJ104V" V 9350 4100 60  0001 C CNN "PartNum"
	1    9350 4100
	1    0    0    -1  
$EndComp
$Comp
L TC2030-CTX J3
U 1 1 55088237
P 7550 5450
F 0 "J3" H 7500 5250 40  0000 L CNN
F 1 "TC2030-CTX" H 7550 5650 40  0000 C CNN
F 2 "NF6X_Tag-Connect:TC2030_BIG" H 7550 5450 60  0001 C CNN
F 3 "" H 7550 5450 60  0000 C CNN
	1    7550 5450
	1    0    0    -1  
$EndComp
$Comp
L STM32F051KxTx U2
U 1 1 5508D489
P 7600 3450
F 0 "U2" H 7600 3600 60  0000 C CNN
F 1 "STM32F051K8T6" H 7600 3350 60  0001 C CNN
F 2 "Housings_QFP:LQFP-32_7x7mm_Pitch0.8mm" H 7600 2350 60  0001 C CNN
F 3 "" H 7600 3450 60  0000 C CNN
F 4 "STM32F051K8T6" H 7600 3450 60  0000 C CNN "PartNum"
	1    7600 3450
	1    0    0    -1  
$EndComp
Text Notes 1300 4250 0    60   ~ 0
Internal Radio\nConnections
$Comp
L GND #PWR08
U 1 1 5508D792
P 7600 4850
F 0 "#PWR08" H 7600 4600 60  0001 C CNN
F 1 "GND" H 7600 4700 60  0000 C CNN
F 2 "" H 7600 4850 60  0000 C CNN
F 3 "" H 7600 4850 60  0000 C CNN
	1    7600 4850
	1    0    0    -1  
$EndComp
Text Notes 7100 5200 0    60   ~ 0
Programming Connector
$Comp
L +3V3 #PWR09
U 1 1 5508DA3F
P 6900 5250
F 0 "#PWR09" H 6900 5100 60  0001 C CNN
F 1 "+3V3" H 6900 5390 60  0000 C CNN
F 2 "" H 6900 5250 60  0000 C CNN
F 3 "" H 6900 5250 60  0000 C CNN
	1    6900 5250
	1    0    0    -1  
$EndComp
$Comp
L GND #PWR010
U 1 1 5508DA90
P 6900 5650
F 0 "#PWR010" H 6900 5400 60  0001 C CNN
F 1 "GND" H 6900 5500 60  0000 C CNN
F 2 "" H 6900 5650 60  0000 C CNN
F 3 "" H 6900 5650 60  0000 C CNN
	1    6900 5650
	1    0    0    -1  
$EndComp
NoConn ~ 6800 4050
NoConn ~ 6800 4250
NoConn ~ 8000 5550
$Comp
L GND #PWR011
U 1 1 5508DBA6
P 6400 3750
F 0 "#PWR011" H 6400 3500 60  0001 C CNN
F 1 "GND" H 6400 3600 60  0000 C CNN
F 2 "" H 6400 3750 60  0000 C CNN
F 3 "" H 6400 3750 60  0000 C CNN
	1    6400 3750
	1    0    0    -1  
$EndComp
$Comp
L GND #PWR012
U 1 1 5508DF04
P 9350 5050
F 0 "#PWR012" H 9350 4800 60  0001 C CNN
F 1 "GND" H 9350 4900 60  0000 C CNN
F 2 "" H 9350 5050 60  0000 C CNN
F 3 "" H 9350 5050 60  0000 C CNN
	1    9350 5050
	1    0    0    -1  
$EndComp
$Comp
L C C7
U 1 1 5508E27F
P 9350 3550
F 0 "C7" H 9350 3650 40  0000 L CNN
F 1 "10uF 10V" H 9356 3465 40  0000 L CNN
F 2 "Capacitors_SMD:C_1206" H 9388 3400 30  0001 C CNN
F 3 "" H 9350 3550 60  0000 C CNN
F 4 "CL31A106KPHNNNE" H 9350 3550 60  0001 C CNN "PartNum"
	1    9350 3550
	-1   0    0    1   
$EndComp
Text GLabel 9650 4700 2    60   Output ~ 0
AUDIO
Text GLabel 1150 4450 0    60   Output ~ 0
~TONE
Text GLabel 1150 4650 0    60   Input ~ 0
AUDIO
$Comp
L R R3
U 1 1 5508E686
P 8600 2300
F 0 "R3" V 8680 2300 40  0000 C CNN
F 1 "10k 5%" V 8607 2301 40  0000 C CNN
F 2 "Resistors_SMD:R_1206" V 8530 2300 30  0001 C CNN
F 3 "" H 8600 2300 30  0000 C CNN
F 4 "ERJ-8GEYJ102V" V 8600 2300 60  0001 C CNN "PartNum"
	1    8600 2300
	1    0    0    -1  
$EndComp
Text GLabel 8750 2850 2    60   Input ~ 0
~TONE
$Comp
L IRLML5203 Q2
U 1 1 55099D89
P 2300 3100
F 0 "Q2" H 2500 3150 40  0000 L CNN
F 1 "IRLML5203" H 2500 3050 40  0000 L CNN
F 2 "Housings_SOT-23_SOT-143_TSOT-6:SOT-23" H 2500 3000 29  0001 L CNN
F 3 "" H 2500 3150 60  0000 C CNN
F 4 "IRLML5203TRPBF" H 2500 2950 60  0001 L CNN "PartNum"
	1    2300 3100
	1    0    0    -1  
$EndComp
$Comp
L MMBT2222A Q1
U 1 1 55099F66
P 1950 3350
F 0 "Q1" H 1950 3201 40  0000 R CNN
F 1 "MMBT2222A" H 1950 3500 40  0000 R CNN
F 2 "Housings_SOT-23_SOT-143_TSOT-6:SOT-23" H 1850 3452 29  0001 C CNN
F 3 "" H 1950 3350 60  0000 C CNN
F 4 "MMBT2222A" H 1750 3600 60  0001 C CNN "PartNum"
	1    1950 3350
	1    0    0    -1  
$EndComp
$Comp
L R R2
U 1 1 5509A12D
P 2050 2700
F 0 "R2" V 2130 2700 40  0000 C CNN
F 1 "10k 5%" V 2057 2701 40  0000 C CNN
F 2 "Resistors_SMD:R_1206" V 1980 2700 30  0001 C CNN
F 3 "" H 2050 2700 30  0000 C CNN
F 4 "ERJ-8GEYJ102V" V 2050 2700 60  0001 C CNN "PartNum"
	1    2050 2700
	1    0    0    -1  
$EndComp
$Comp
L R R1
U 1 1 5509A177
P 1350 3350
F 0 "R1" V 1430 3350 40  0000 C CNN
F 1 "10k 5%" V 1357 3351 40  0000 C CNN
F 2 "Resistors_SMD:R_1206" V 1280 3350 30  0001 C CNN
F 3 "" H 1350 3350 30  0000 C CNN
F 4 "ERJ-8GEYJ102V" V 1350 3350 60  0001 C CNN "PartNum"
	1    1350 3350
	0    1    1    0   
$EndComp
$Comp
L GND #PWR013
U 1 1 5509A24C
P 2050 3650
F 0 "#PWR013" H 2050 3400 60  0001 C CNN
F 1 "GND" H 2050 3500 60  0000 C CNN
F 2 "" H 2050 3650 60  0000 C CNN
F 3 "" H 2050 3650 60  0000 C CNN
	1    2050 3650
	1    0    0    -1  
$EndComp
Text GLabel 950  3350 0    60   Input ~ 0
TXON
$Comp
L C C5
U 1 1 550DBF9C
P 6350 4700
F 0 "C5" H 6350 4800 40  0000 L CNN
F 1 "0.1uF 50V" H 6356 4615 40  0000 L CNN
F 2 "Capacitors_SMD:C_1206" H 6388 4550 30  0001 C CNN
F 3 "" H 6350 4700 60  0000 C CNN
F 4 "C1206C104K3RACTU" H 6350 4700 60  0001 C CNN "PartNum"
	1    6350 4700
	-1   0    0    1   
$EndComp
$Comp
L C C3
U 1 1 550DC14D
P 5700 2350
F 0 "C3" H 5700 2450 40  0000 L CNN
F 1 "0.1uF 50V" H 5706 2265 40  0000 L CNN
F 2 "Capacitors_SMD:C_1206" H 5738 2200 30  0001 C CNN
F 3 "" H 5700 2350 60  0000 C CNN
F 4 "C1206C104K3RACTU" H 5700 2350 60  0001 C CNN "PartNum"
	1    5700 2350
	-1   0    0    1   
$EndComp
$Comp
L C C4
U 1 1 550DC1A9
P 6100 2350
F 0 "C4" H 6100 2450 40  0000 L CNN
F 1 "0.1uF 50V" H 6106 2265 40  0000 L CNN
F 2 "Capacitors_SMD:C_1206" H 6138 2200 30  0001 C CNN
F 3 "" H 6100 2350 60  0000 C CNN
F 4 "C1206C104K3RACTU" H 6100 2350 60  0001 C CNN "PartNum"
	1    6100 2350
	-1   0    0    1   
$EndComp
$Comp
L C C6
U 1 1 550DC1E8
P 6500 2350
F 0 "C6" H 6500 2450 40  0000 L CNN
F 1 "0.1uF 50V" H 6506 2265 40  0000 L CNN
F 2 "Capacitors_SMD:C_1206" H 6538 2200 30  0001 C CNN
F 3 "" H 6500 2350 60  0000 C CNN
F 4 "C1206C104K3RACTU" H 6500 2350 60  0001 C CNN "PartNum"
	1    6500 2350
	-1   0    0    1   
$EndComp
$Comp
L GND #PWR014
U 1 1 550DC28D
P 6350 5000
F 0 "#PWR014" H 6350 4750 60  0001 C CNN
F 1 "GND" H 6350 4850 60  0000 C CNN
F 2 "" H 6350 5000 60  0000 C CNN
F 3 "" H 6350 5000 60  0000 C CNN
	1    6350 5000
	1    0    0    -1  
$EndComp
$Comp
L GND #PWR015
U 1 1 550DC2C0
P 6100 2700
F 0 "#PWR015" H 6100 2450 60  0001 C CNN
F 1 "GND" H 6100 2550 60  0000 C CNN
F 2 "" H 6100 2700 60  0000 C CNN
F 3 "" H 6100 2700 60  0000 C CNN
	1    6100 2700
	1    0    0    -1  
$EndComp
Text Label 2400 2450 0    60   ~ 0
+15V
Wire Wire Line
	3650 4850 3650 4950
Wire Wire Line
	4050 4550 4350 4550
Wire Wire Line
	4350 4350 4350 4650
Wire Wire Line
	3100 5050 3100 5150
Wire Wire Line
	3100 2450 3100 4650
Connection ~ 3100 4550
Connection ~ 4350 4550
Wire Wire Line
	4350 5050 4350 5150
Wire Wire Line
	7500 4700 7500 4800
Wire Wire Line
	7500 4800 7700 4800
Wire Wire Line
	7700 4800 7700 4700
Wire Wire Line
	7600 4850 7600 4800
Connection ~ 7600 4800
Wire Wire Line
	7500 2200 7500 2050
Wire Wire Line
	7700 2050 7700 2200
Wire Wire Line
	7600 1950 7600 2200
Connection ~ 7600 2050
Wire Wire Line
	6900 5650 6900 5550
Wire Wire Line
	6900 5550 7100 5550
Wire Wire Line
	6900 5250 6900 5350
Wire Wire Line
	6900 5350 7100 5350
Wire Wire Line
	7100 5450 6600 5450
Wire Wire Line
	6600 5450 6600 3850
Wire Wire Line
	6600 3850 6800 3850
Wire Wire Line
	8000 5350 8600 5350
Wire Wire Line
	8600 5350 8600 4050
Wire Wire Line
	8600 4050 8400 4050
Wire Wire Line
	8000 5450 8700 5450
Wire Wire Line
	8700 5450 8700 4150
Wire Wire Line
	8700 4150 8400 4150
Wire Wire Line
	6400 3750 6400 3650
Wire Wire Line
	6400 3650 6800 3650
Wire Wire Line
	9350 4950 9350 5050
Wire Wire Line
	9350 4350 9350 4450
Wire Wire Line
	9350 3750 9350 3850
Wire Wire Line
	9500 4700 9650 4700
Wire Wire Line
	8400 3050 9350 3050
Wire Wire Line
	9350 3050 9350 3350
Wire Wire Line
	5700 2050 8600 2050
Connection ~ 7700 2050
Wire Wire Line
	2050 2950 2050 3150
Wire Wire Line
	2100 3050 2050 3050
Connection ~ 2050 3050
Wire Wire Line
	2050 2450 3100 2450
Connection ~ 2400 2450
Wire Wire Line
	2050 3550 2050 3650
Wire Wire Line
	1750 3350 1600 3350
Wire Wire Line
	950  3350 1100 3350
Wire Wire Line
	5700 2550 5700 2650
Wire Wire Line
	5700 2650 6500 2650
Wire Wire Line
	6500 2650 6500 2550
Wire Wire Line
	6100 2550 6100 2700
Connection ~ 6100 2650
Wire Wire Line
	5700 2150 5700 2050
Connection ~ 7500 2050
Wire Wire Line
	6500 2150 6500 2050
Connection ~ 6500 2050
Wire Wire Line
	6100 2150 6100 2050
Connection ~ 6100 2050
Wire Wire Line
	6350 4500 6350 4350
Wire Wire Line
	6350 4350 6600 4350
Connection ~ 6600 4350
Wire Wire Line
	6350 4900 6350 5000
Wire Wire Line
	2400 2450 2400 2900
Wire Wire Line
	2100 4550 3250 4550
Wire Wire Line
	2400 3300 2400 4650
Wire Wire Line
	2400 4650 2100 4650
Wire Wire Line
	2050 5250 2200 5250
Wire Wire Line
	2200 5250 2200 4750
Wire Wire Line
	2200 4750 2100 4750
Wire Wire Line
	1950 5700 2200 5700
Wire Wire Line
	2200 5700 2200 5350
Wire Wire Line
	2200 5350 2050 5350
Wire Wire Line
	1500 5750 1500 5700
Wire Wire Line
	1500 5700 1550 5700
Wire Wire Line
	1250 4800 1250 4750
Wire Wire Line
	1250 4750 1300 4750
Text Notes 1550 5400 0    60   ~ 0
+\n-
Wire Wire Line
	1150 4450 1200 4450
Wire Wire Line
	1200 4450 1200 4550
Wire Wire Line
	1200 4550 1300 4550
Wire Wire Line
	1150 4650 1300 4650
Text GLabel 6550 2950 0    60   Output ~ 0
TXON
Wire Wire Line
	6550 2950 6800 2950
Wire Wire Line
	8400 2850 8750 2850
Wire Wire Line
	8600 2550 8600 2850
Connection ~ 8600 2850
Text Label 2200 5250 0    60   ~ 0
B+
Text Label 2200 5450 0    60   ~ 0
B-
Text Label 2400 4150 1    60   ~ 0
TXPWR
NoConn ~ 8400 2650
NoConn ~ 8400 2750
NoConn ~ 8400 2950
NoConn ~ 8400 3150
NoConn ~ 8400 3250
NoConn ~ 8400 3350
NoConn ~ 8400 3550
NoConn ~ 8400 3650
NoConn ~ 8400 3750
NoConn ~ 8400 3850
NoConn ~ 8400 3950
NoConn ~ 8400 4250
NoConn ~ 6800 3350
NoConn ~ 6800 3250
NoConn ~ 6800 3150
NoConn ~ 6800 3050
NoConn ~ 6800 2750
NoConn ~ 6800 2650
Text Notes 950  7500 0    60   ~ 0
J1:\n1  ORN  +15V from power switch\n2  BRN  switch to gnd in TONE mode\n3  YEL  +15V power feed to transmitter\n4  GRN  audio input to transmitter\n5  RED  +15V from battery pack to power switch\n6  BLK  GND\n\nJ2:\n1  RED  Battery pack +\n2  BLK  Battery pack -\n\nPack is 10x AAA cells in holder,\nmade from 2x 4-cell holders and\n1x 2-cell holder.
Text Notes 6550 6300 0    60   ~ 0
Program with:\n* ST-LINK/V2\n* Tag-Connect TC2030-IDC or TC2030-IDC-NL cable\n* Tag-Connect ARM20-CTX adapter
$EndSCHEMATC
