%FSLAX45Y45*%
G04 Gerber Fmt 4.5, Leading zero omitted, Abs format (unit mm)*
G04 Created by KiCad (PCBNEW (2014-12-16 BZR 5324)-product) date Sunday, March 22, 2015 'PMt' 10:48:55 PM*
%MOMM*%
G01*
G04 APERTURE LIST*
%ADD10C,0.127000*%
%ADD11C,0.100000*%
%ADD12C,0.200000*%
%ADD13C,0.300000*%
G04 APERTURE END LIST*
D10*
D11*
X4318000Y0D02*
X254000Y0D01*
X4572000Y254000D02*
X4572000Y2413000D01*
X254000Y2667000D02*
X4318000Y2667000D01*
X0Y254000D02*
X0Y2413000D01*
X0Y254000D02*
G75*
G03X254000Y0I254000J0D01*
G01*
X4318000Y0D02*
G75*
G03X4572000Y254000I0J254000D01*
G01*
X4572000Y2413000D02*
G75*
G03X4318000Y2667000I-254000J0D01*
G01*
X254000Y2667000D02*
G75*
G03X0Y2413000I0J-254000D01*
G01*
D12*
X580390Y2378710D02*
X613410Y2345690D01*
X613410Y2378710D02*
X580390Y2345690D01*
X694690Y2378710D02*
X727710Y2345690D01*
X727710Y2378710D02*
X694690Y2345690D01*
X808990Y2378710D02*
X842010Y2345690D01*
X842010Y2378710D02*
X808990Y2345690D01*
X1202690Y727710D02*
X1235710Y694690D01*
X1235710Y727710D02*
X1202690Y694690D01*
X1253490Y410210D02*
X1286510Y377190D01*
X1286510Y410210D02*
X1253490Y377190D01*
X1304290Y575310D02*
X1337310Y542290D01*
X1337310Y575310D02*
X1304290Y542290D01*
X1405890Y702310D02*
X1438910Y669290D01*
X1438910Y702310D02*
X1405890Y669290D01*
X1456690Y575310D02*
X1489710Y542290D01*
X1489710Y575310D02*
X1456690Y542290D01*
X1583690Y1553210D02*
X1616710Y1520190D01*
X1616710Y1553210D02*
X1583690Y1520190D01*
X1659890Y575310D02*
X1692910Y542290D01*
X1692910Y575310D02*
X1659890Y542290D01*
X1659890Y410210D02*
X1692910Y377190D01*
X1692910Y410210D02*
X1659890Y377190D01*
X1748790Y1515110D02*
X1781810Y1482090D01*
X1781810Y1515110D02*
X1748790Y1482090D01*
X1863090Y575310D02*
X1896110Y542290D01*
X1896110Y575310D02*
X1863090Y542290D01*
X2053590Y359410D02*
X2086610Y326390D01*
X2086610Y359410D02*
X2053590Y326390D01*
X2053590Y270510D02*
X2086610Y237490D01*
X2086610Y270510D02*
X2053590Y237490D01*
X2053590Y181610D02*
X2086610Y148590D01*
X2086610Y181610D02*
X2053590Y148590D01*
X2066290Y575310D02*
X2099310Y542290D01*
X2099310Y575310D02*
X2066290Y542290D01*
X2218690Y473710D02*
X2251710Y440690D01*
X2251710Y473710D02*
X2218690Y440690D01*
X2218690Y270510D02*
X2251710Y237490D01*
X2251710Y270510D02*
X2218690Y237490D01*
X2421890Y473710D02*
X2454910Y440690D01*
X2454910Y473710D02*
X2421890Y440690D01*
X2421890Y270510D02*
X2454910Y237490D01*
X2454910Y270510D02*
X2421890Y237490D01*
X2625090Y473710D02*
X2658110Y440690D01*
X2658110Y473710D02*
X2625090Y440690D01*
X2625090Y270510D02*
X2658110Y237490D01*
X2658110Y270510D02*
X2625090Y237490D01*
X2675890Y2404110D02*
X2708910Y2371090D01*
X2708910Y2404110D02*
X2675890Y2371090D01*
X2790190Y1794510D02*
X2823210Y1761490D01*
X2823210Y1794510D02*
X2790190Y1761490D01*
X2790190Y1489710D02*
X2823210Y1456690D01*
X2823210Y1489710D02*
X2790190Y1456690D01*
X2828290Y473710D02*
X2861310Y440690D01*
X2861310Y473710D02*
X2828290Y440690D01*
X2828290Y270510D02*
X2861310Y237490D01*
X2861310Y270510D02*
X2828290Y237490D01*
X3031490Y473710D02*
X3064510Y440690D01*
X3064510Y473710D02*
X3031490Y440690D01*
X3031490Y270510D02*
X3064510Y237490D01*
X3064510Y270510D02*
X3031490Y237490D01*
X3145790Y930910D02*
X3178810Y897890D01*
X3178810Y930910D02*
X3145790Y897890D01*
X3183890Y473710D02*
X3216910Y440690D01*
X3216910Y473710D02*
X3183890Y440690D01*
X3183890Y270510D02*
X3216910Y237490D01*
X3216910Y270510D02*
X3183890Y237490D01*
X3209290Y1007110D02*
X3242310Y974090D01*
X3242310Y1007110D02*
X3209290Y974090D01*
X3234690Y2442210D02*
X3267710Y2409190D01*
X3267710Y2442210D02*
X3234690Y2409190D01*
X3234690Y778510D02*
X3267710Y745490D01*
X3267710Y778510D02*
X3234690Y745490D01*
X3361690Y981710D02*
X3394710Y948690D01*
X3394710Y981710D02*
X3361690Y948690D01*
X3361690Y702310D02*
X3394710Y669290D01*
X3394710Y702310D02*
X3361690Y669290D01*
X3387090Y575310D02*
X3420110Y542290D01*
X3420110Y575310D02*
X3387090Y542290D01*
X3387090Y168910D02*
X3420110Y135890D01*
X3420110Y168910D02*
X3387090Y135890D01*
X3539490Y1311910D02*
X3572510Y1278890D01*
X3572510Y1311910D02*
X3539490Y1278890D01*
X3564890Y2175510D02*
X3597910Y2142490D01*
X3597910Y2175510D02*
X3564890Y2142490D01*
X3590290Y473710D02*
X3623310Y440690D01*
X3623310Y473710D02*
X3590290Y440690D01*
X3590290Y270510D02*
X3623310Y237490D01*
X3623310Y270510D02*
X3590290Y237490D01*
X3641090Y1159510D02*
X3674110Y1126490D01*
X3674110Y1159510D02*
X3641090Y1126490D01*
X3641090Y930910D02*
X3674110Y897890D01*
X3674110Y930910D02*
X3641090Y897890D01*
X3641090Y727710D02*
X3674110Y694690D01*
X3674110Y727710D02*
X3641090Y694690D01*
X3666490Y1464310D02*
X3699510Y1431290D01*
X3699510Y1464310D02*
X3666490Y1431290D01*
X3793490Y1464310D02*
X3826510Y1431290D01*
X3826510Y1464310D02*
X3793490Y1431290D01*
X3895090Y1159510D02*
X3928110Y1126490D01*
X3928110Y1159510D02*
X3895090Y1126490D01*
X3920490Y1591310D02*
X3953510Y1558290D01*
X3953510Y1591310D02*
X3920490Y1558290D01*
X3920490Y1032510D02*
X3953510Y999490D01*
X3953510Y1032510D02*
X3920490Y999490D01*
X3920490Y930910D02*
X3953510Y897890D01*
X3953510Y930910D02*
X3920490Y897890D01*
X3920490Y727710D02*
X3953510Y694690D01*
X3953510Y727710D02*
X3920490Y694690D01*
X3971290Y257810D02*
X4004310Y224790D01*
X4004310Y257810D02*
X3971290Y224790D01*
X4098290Y1565910D02*
X4131310Y1532890D01*
X4131310Y1565910D02*
X4098290Y1532890D01*
X4199890Y829310D02*
X4232910Y796290D01*
X4232910Y829310D02*
X4199890Y796290D01*
X4212590Y2023110D02*
X4245610Y1990090D01*
X4245610Y2023110D02*
X4212590Y1990090D01*
X4212590Y1934210D02*
X4245610Y1901190D01*
X4245610Y1934210D02*
X4212590Y1901190D01*
X4225290Y1565910D02*
X4258310Y1532890D01*
X4258310Y1565910D02*
X4225290Y1532890D01*
X4225290Y1172210D02*
X4258310Y1139190D01*
X4258310Y1172210D02*
X4225290Y1139190D01*
X854400Y1216000D02*
G75*
G03X854400Y1216000I-40000J0D01*
G01*
X854400Y1016000D02*
G75*
G03X854400Y1016000I-40000J0D01*
G01*
X854400Y816000D02*
G75*
G03X854400Y816000I-40000J0D01*
G01*
X854400Y508000D02*
G75*
G03X854400Y508000I-40000J0D01*
G01*
X1054400Y1216000D02*
G75*
G03X1054400Y1216000I-40000J0D01*
G01*
X1054400Y1016000D02*
G75*
G03X1054400Y1016000I-40000J0D01*
G01*
X1054400Y816000D02*
G75*
G03X1054400Y816000I-40000J0D01*
G01*
X1054400Y508000D02*
G75*
G03X1054400Y508000I-40000J0D01*
G01*
X1574800Y760476D02*
X1574800Y661924D01*
X1525524Y711200D02*
X1624076Y711200D01*
X1778000Y760476D02*
X1778000Y661924D01*
X1728724Y711200D02*
X1827276Y711200D01*
X1711333Y1184267D02*
X1711333Y1254134D01*
X1641466Y1254134D01*
X1641466Y1184267D01*
X1711333Y1184267D01*
X1422400Y1088009D02*
X1540891Y1206500D01*
X1422400Y1324991D01*
X1303909Y1206500D01*
X1422400Y1088009D01*
X1422400Y783209D02*
X1540891Y901700D01*
X1422400Y1020191D01*
X1303909Y901700D01*
X1422400Y783209D01*
X1930400Y783209D02*
X2048891Y901700D01*
X1930400Y1020191D01*
X1811909Y901700D01*
X1930400Y783209D01*
X1811782Y1337818D02*
X2049018Y1100582D01*
X2049018Y1337818D02*
X1811782Y1100582D01*
X2049018Y1219200D02*
G75*
G03X2049018Y1219200I-118618J0D01*
G01*
X104013Y975487D02*
X403987Y675513D01*
X403987Y975487D02*
X104013Y675513D01*
X254000Y975487D02*
X254000Y675513D01*
X104013Y825500D02*
X403987Y825500D01*
X2326513Y975487D02*
X2626487Y675513D01*
X2626487Y975487D02*
X2326513Y675513D01*
X2476500Y975487D02*
X2476500Y675513D01*
X2326513Y825500D02*
X2626487Y825500D01*
D13*
X266429Y-470714D02*
X266429Y-170714D01*
X337857Y-170714D01*
X380714Y-185000D01*
X409286Y-213571D01*
X423571Y-242143D01*
X437857Y-299286D01*
X437857Y-342143D01*
X423571Y-399286D01*
X409286Y-427857D01*
X380714Y-456429D01*
X337857Y-470714D01*
X266429Y-470714D01*
X566429Y-470714D02*
X566429Y-270714D01*
X566429Y-327857D02*
X580714Y-299286D01*
X595000Y-285000D01*
X623571Y-270714D01*
X652143Y-270714D01*
X752143Y-470714D02*
X752143Y-270714D01*
X752143Y-170714D02*
X737857Y-185000D01*
X752143Y-199286D01*
X766428Y-185000D01*
X752143Y-170714D01*
X752143Y-199286D01*
X937857Y-470714D02*
X909286Y-456429D01*
X895000Y-427857D01*
X895000Y-170714D01*
X1095000Y-470714D02*
X1066429Y-456429D01*
X1052143Y-427857D01*
X1052143Y-170714D01*
X1437857Y-470714D02*
X1437857Y-170714D01*
X1537857Y-385000D01*
X1637857Y-170714D01*
X1637857Y-470714D01*
X1909286Y-470714D02*
X1909286Y-313572D01*
X1895000Y-285000D01*
X1866428Y-270714D01*
X1809286Y-270714D01*
X1780714Y-285000D01*
X1909286Y-456429D02*
X1880714Y-470714D01*
X1809286Y-470714D01*
X1780714Y-456429D01*
X1766428Y-427857D01*
X1766428Y-399286D01*
X1780714Y-370714D01*
X1809286Y-356429D01*
X1880714Y-356429D01*
X1909286Y-342143D01*
X2052143Y-270714D02*
X2052143Y-570714D01*
X2052143Y-285000D02*
X2080714Y-270714D01*
X2137857Y-270714D01*
X2166429Y-285000D01*
X2180714Y-299286D01*
X2195000Y-327857D01*
X2195000Y-413571D01*
X2180714Y-442143D01*
X2166429Y-456429D01*
X2137857Y-470714D01*
X2080714Y-470714D01*
X2052143Y-456429D01*
X2323571Y-442143D02*
X2337857Y-456429D01*
X2323571Y-470714D01*
X2309286Y-456429D01*
X2323571Y-442143D01*
X2323571Y-470714D01*
X2323571Y-285000D02*
X2337857Y-299286D01*
X2323571Y-313572D01*
X2309286Y-299286D01*
X2323571Y-285000D01*
X2323571Y-313572D01*
X-38020Y-948490D02*
X-5000Y-981510D01*
X-5000Y-948490D02*
X-38020Y-981510D01*
X323571Y-800714D02*
X352143Y-800714D01*
X380714Y-815000D01*
X395000Y-829286D01*
X409286Y-857857D01*
X423571Y-915000D01*
X423571Y-986429D01*
X409286Y-1043571D01*
X395000Y-1072143D01*
X380714Y-1086429D01*
X352143Y-1100714D01*
X323571Y-1100714D01*
X295000Y-1086429D01*
X280714Y-1072143D01*
X266429Y-1043571D01*
X252143Y-986429D01*
X252143Y-915000D01*
X266429Y-857857D01*
X280714Y-829286D01*
X295000Y-815000D01*
X323571Y-800714D01*
X552143Y-1072143D02*
X566429Y-1086429D01*
X552143Y-1100714D01*
X537857Y-1086429D01*
X552143Y-1072143D01*
X552143Y-1100714D01*
X666428Y-800714D02*
X852143Y-800714D01*
X752143Y-915000D01*
X795000Y-915000D01*
X823571Y-929286D01*
X837857Y-943571D01*
X852143Y-972143D01*
X852143Y-1043571D01*
X837857Y-1072143D01*
X823571Y-1086429D01*
X795000Y-1100714D01*
X709286Y-1100714D01*
X680714Y-1086429D01*
X666428Y-1072143D01*
X952143Y-800714D02*
X1137857Y-800714D01*
X1037857Y-915000D01*
X1080714Y-915000D01*
X1109286Y-929286D01*
X1123571Y-943571D01*
X1137857Y-972143D01*
X1137857Y-1043571D01*
X1123571Y-1072143D01*
X1109286Y-1086429D01*
X1080714Y-1100714D01*
X995000Y-1100714D01*
X966428Y-1086429D01*
X952143Y-1072143D01*
X1266429Y-1100714D02*
X1266429Y-900714D01*
X1266429Y-929286D02*
X1280714Y-915000D01*
X1309286Y-900714D01*
X1352143Y-900714D01*
X1380714Y-915000D01*
X1395000Y-943571D01*
X1395000Y-1100714D01*
X1395000Y-943571D02*
X1409286Y-915000D01*
X1437857Y-900714D01*
X1480714Y-900714D01*
X1509286Y-915000D01*
X1523571Y-943571D01*
X1523571Y-1100714D01*
X1666428Y-1100714D02*
X1666428Y-900714D01*
X1666428Y-929286D02*
X1680714Y-915000D01*
X1709286Y-900714D01*
X1752143Y-900714D01*
X1780714Y-915000D01*
X1795000Y-943571D01*
X1795000Y-1100714D01*
X1795000Y-943571D02*
X1809286Y-915000D01*
X1837857Y-900714D01*
X1880714Y-900714D01*
X1909286Y-915000D01*
X1923571Y-943571D01*
X1923571Y-1100714D01*
X2509286Y-786429D02*
X2252143Y-1172143D01*
X2895000Y-800714D02*
X2923571Y-800714D01*
X2952143Y-815000D01*
X2966428Y-829286D01*
X2980714Y-857857D01*
X2995000Y-915000D01*
X2995000Y-986429D01*
X2980714Y-1043571D01*
X2966428Y-1072143D01*
X2952143Y-1086429D01*
X2923571Y-1100714D01*
X2895000Y-1100714D01*
X2866428Y-1086429D01*
X2852143Y-1072143D01*
X2837857Y-1043571D01*
X2823571Y-986429D01*
X2823571Y-915000D01*
X2837857Y-857857D01*
X2852143Y-829286D01*
X2866428Y-815000D01*
X2895000Y-800714D01*
X3123571Y-1072143D02*
X3137857Y-1086429D01*
X3123571Y-1100714D01*
X3109286Y-1086429D01*
X3123571Y-1072143D01*
X3123571Y-1100714D01*
X3323571Y-800714D02*
X3352143Y-800714D01*
X3380714Y-815000D01*
X3395000Y-829286D01*
X3409285Y-857857D01*
X3423571Y-915000D01*
X3423571Y-986429D01*
X3409285Y-1043571D01*
X3395000Y-1072143D01*
X3380714Y-1086429D01*
X3352143Y-1100714D01*
X3323571Y-1100714D01*
X3295000Y-1086429D01*
X3280714Y-1072143D01*
X3266428Y-1043571D01*
X3252143Y-986429D01*
X3252143Y-915000D01*
X3266428Y-857857D01*
X3280714Y-829286D01*
X3295000Y-815000D01*
X3323571Y-800714D01*
X3709285Y-1100714D02*
X3537857Y-1100714D01*
X3623571Y-1100714D02*
X3623571Y-800714D01*
X3595000Y-843571D01*
X3566428Y-872143D01*
X3537857Y-886429D01*
X3809285Y-800714D02*
X3995000Y-800714D01*
X3895000Y-915000D01*
X3937857Y-915000D01*
X3966428Y-929286D01*
X3980714Y-943571D01*
X3995000Y-972143D01*
X3995000Y-1043571D01*
X3980714Y-1072143D01*
X3966428Y-1086429D01*
X3937857Y-1100714D01*
X3852143Y-1100714D01*
X3823571Y-1086429D01*
X3809285Y-1072143D01*
X4109286Y-800714D02*
X4109286Y-857857D01*
X4223571Y-800714D02*
X4223571Y-857857D01*
X4666428Y-1215000D02*
X4652143Y-1200714D01*
X4623571Y-1157857D01*
X4609286Y-1129286D01*
X4595000Y-1086429D01*
X4580714Y-1015000D01*
X4580714Y-957857D01*
X4595000Y-886429D01*
X4609286Y-843571D01*
X4623571Y-815000D01*
X4652143Y-772143D01*
X4666428Y-757857D01*
X4909286Y-800714D02*
X4852143Y-800714D01*
X4823571Y-815000D01*
X4809286Y-829286D01*
X4780714Y-872143D01*
X4766428Y-929286D01*
X4766428Y-1043571D01*
X4780714Y-1072143D01*
X4795000Y-1086429D01*
X4823571Y-1100714D01*
X4880714Y-1100714D01*
X4909286Y-1086429D01*
X4923571Y-1072143D01*
X4937857Y-1043571D01*
X4937857Y-972143D01*
X4923571Y-943571D01*
X4909286Y-929286D01*
X4880714Y-915000D01*
X4823571Y-915000D01*
X4795000Y-929286D01*
X4780714Y-943571D01*
X4766428Y-972143D01*
X5223571Y-1100714D02*
X5052143Y-1100714D01*
X5137857Y-1100714D02*
X5137857Y-800714D01*
X5109286Y-843571D01*
X5080714Y-872143D01*
X5052143Y-886429D01*
X5580714Y-1100714D02*
X5580714Y-800714D01*
X5709285Y-1100714D02*
X5709285Y-943571D01*
X5695000Y-915000D01*
X5666428Y-900714D01*
X5623571Y-900714D01*
X5595000Y-915000D01*
X5580714Y-929286D01*
X5895000Y-1100714D02*
X5866428Y-1086429D01*
X5852143Y-1072143D01*
X5837857Y-1043571D01*
X5837857Y-957857D01*
X5852143Y-929286D01*
X5866428Y-915000D01*
X5895000Y-900714D01*
X5937857Y-900714D01*
X5966428Y-915000D01*
X5980714Y-929286D01*
X5995000Y-957857D01*
X5995000Y-1043571D01*
X5980714Y-1072143D01*
X5966428Y-1086429D01*
X5937857Y-1100714D01*
X5895000Y-1100714D01*
X6166428Y-1100714D02*
X6137857Y-1086429D01*
X6123571Y-1057857D01*
X6123571Y-800714D01*
X6395000Y-1086429D02*
X6366428Y-1100714D01*
X6309286Y-1100714D01*
X6280714Y-1086429D01*
X6266428Y-1057857D01*
X6266428Y-943571D01*
X6280714Y-915000D01*
X6309286Y-900714D01*
X6366428Y-900714D01*
X6395000Y-915000D01*
X6409286Y-943571D01*
X6409286Y-972143D01*
X6266428Y-1000714D01*
X6523571Y-1086429D02*
X6552143Y-1100714D01*
X6609286Y-1100714D01*
X6637857Y-1086429D01*
X6652143Y-1057857D01*
X6652143Y-1043571D01*
X6637857Y-1015000D01*
X6609286Y-1000714D01*
X6566428Y-1000714D01*
X6537857Y-986429D01*
X6523571Y-957857D01*
X6523571Y-943571D01*
X6537857Y-915000D01*
X6566428Y-900714D01*
X6609286Y-900714D01*
X6637857Y-915000D01*
X6752143Y-1215000D02*
X6766428Y-1200714D01*
X6795000Y-1157857D01*
X6809286Y-1129286D01*
X6823571Y-1086429D01*
X6837857Y-1015000D01*
X6837857Y-957857D01*
X6823571Y-886429D01*
X6809286Y-843571D01*
X6795000Y-815000D01*
X6766428Y-772143D01*
X6752143Y-757857D01*
X-5000Y-1361000D02*
G75*
G03X-5000Y-1361000I-40000J0D01*
G01*
X323571Y-1196714D02*
X352143Y-1196714D01*
X380714Y-1211000D01*
X395000Y-1225286D01*
X409286Y-1253857D01*
X423571Y-1311000D01*
X423571Y-1382429D01*
X409286Y-1439571D01*
X395000Y-1468143D01*
X380714Y-1482429D01*
X352143Y-1496714D01*
X323571Y-1496714D01*
X295000Y-1482429D01*
X280714Y-1468143D01*
X266429Y-1439571D01*
X252143Y-1382429D01*
X252143Y-1311000D01*
X266429Y-1253857D01*
X280714Y-1225286D01*
X295000Y-1211000D01*
X323571Y-1196714D01*
X552143Y-1468143D02*
X566429Y-1482429D01*
X552143Y-1496714D01*
X537857Y-1482429D01*
X552143Y-1468143D01*
X552143Y-1496714D01*
X737857Y-1325286D02*
X709286Y-1311000D01*
X695000Y-1296714D01*
X680714Y-1268143D01*
X680714Y-1253857D01*
X695000Y-1225286D01*
X709286Y-1211000D01*
X737857Y-1196714D01*
X795000Y-1196714D01*
X823571Y-1211000D01*
X837857Y-1225286D01*
X852143Y-1253857D01*
X852143Y-1268143D01*
X837857Y-1296714D01*
X823571Y-1311000D01*
X795000Y-1325286D01*
X737857Y-1325286D01*
X709286Y-1339572D01*
X695000Y-1353857D01*
X680714Y-1382429D01*
X680714Y-1439571D01*
X695000Y-1468143D01*
X709286Y-1482429D01*
X737857Y-1496714D01*
X795000Y-1496714D01*
X823571Y-1482429D01*
X837857Y-1468143D01*
X852143Y-1439571D01*
X852143Y-1382429D01*
X837857Y-1353857D01*
X823571Y-1339572D01*
X795000Y-1325286D01*
X1037857Y-1196714D02*
X1066429Y-1196714D01*
X1095000Y-1211000D01*
X1109286Y-1225286D01*
X1123571Y-1253857D01*
X1137857Y-1311000D01*
X1137857Y-1382429D01*
X1123571Y-1439571D01*
X1109286Y-1468143D01*
X1095000Y-1482429D01*
X1066429Y-1496714D01*
X1037857Y-1496714D01*
X1009286Y-1482429D01*
X995000Y-1468143D01*
X980714Y-1439571D01*
X966428Y-1382429D01*
X966428Y-1311000D01*
X980714Y-1253857D01*
X995000Y-1225286D01*
X1009286Y-1211000D01*
X1037857Y-1196714D01*
X1266429Y-1496714D02*
X1266429Y-1296714D01*
X1266429Y-1325286D02*
X1280714Y-1311000D01*
X1309286Y-1296714D01*
X1352143Y-1296714D01*
X1380714Y-1311000D01*
X1395000Y-1339572D01*
X1395000Y-1496714D01*
X1395000Y-1339572D02*
X1409286Y-1311000D01*
X1437857Y-1296714D01*
X1480714Y-1296714D01*
X1509286Y-1311000D01*
X1523571Y-1339572D01*
X1523571Y-1496714D01*
X1666428Y-1496714D02*
X1666428Y-1296714D01*
X1666428Y-1325286D02*
X1680714Y-1311000D01*
X1709286Y-1296714D01*
X1752143Y-1296714D01*
X1780714Y-1311000D01*
X1795000Y-1339572D01*
X1795000Y-1496714D01*
X1795000Y-1339572D02*
X1809286Y-1311000D01*
X1837857Y-1296714D01*
X1880714Y-1296714D01*
X1909286Y-1311000D01*
X1923571Y-1339572D01*
X1923571Y-1496714D01*
X2509286Y-1182429D02*
X2252143Y-1568143D01*
X2895000Y-1196714D02*
X2923571Y-1196714D01*
X2952143Y-1211000D01*
X2966428Y-1225286D01*
X2980714Y-1253857D01*
X2995000Y-1311000D01*
X2995000Y-1382429D01*
X2980714Y-1439571D01*
X2966428Y-1468143D01*
X2952143Y-1482429D01*
X2923571Y-1496714D01*
X2895000Y-1496714D01*
X2866428Y-1482429D01*
X2852143Y-1468143D01*
X2837857Y-1439571D01*
X2823571Y-1382429D01*
X2823571Y-1311000D01*
X2837857Y-1253857D01*
X2852143Y-1225286D01*
X2866428Y-1211000D01*
X2895000Y-1196714D01*
X3123571Y-1468143D02*
X3137857Y-1482429D01*
X3123571Y-1496714D01*
X3109286Y-1482429D01*
X3123571Y-1468143D01*
X3123571Y-1496714D01*
X3323571Y-1196714D02*
X3352143Y-1196714D01*
X3380714Y-1211000D01*
X3395000Y-1225286D01*
X3409285Y-1253857D01*
X3423571Y-1311000D01*
X3423571Y-1382429D01*
X3409285Y-1439571D01*
X3395000Y-1468143D01*
X3380714Y-1482429D01*
X3352143Y-1496714D01*
X3323571Y-1496714D01*
X3295000Y-1482429D01*
X3280714Y-1468143D01*
X3266428Y-1439571D01*
X3252143Y-1382429D01*
X3252143Y-1311000D01*
X3266428Y-1253857D01*
X3280714Y-1225286D01*
X3295000Y-1211000D01*
X3323571Y-1196714D01*
X3523571Y-1196714D02*
X3709285Y-1196714D01*
X3609285Y-1311000D01*
X3652143Y-1311000D01*
X3680714Y-1325286D01*
X3695000Y-1339572D01*
X3709285Y-1368143D01*
X3709285Y-1439571D01*
X3695000Y-1468143D01*
X3680714Y-1482429D01*
X3652143Y-1496714D01*
X3566428Y-1496714D01*
X3537857Y-1482429D01*
X3523571Y-1468143D01*
X3995000Y-1496714D02*
X3823571Y-1496714D01*
X3909285Y-1496714D02*
X3909285Y-1196714D01*
X3880714Y-1239572D01*
X3852143Y-1268143D01*
X3823571Y-1282429D01*
X4109286Y-1196714D02*
X4109286Y-1253857D01*
X4223571Y-1196714D02*
X4223571Y-1253857D01*
X4666428Y-1611000D02*
X4652143Y-1596714D01*
X4623571Y-1553857D01*
X4609286Y-1525286D01*
X4595000Y-1482429D01*
X4580714Y-1411000D01*
X4580714Y-1353857D01*
X4595000Y-1282429D01*
X4609286Y-1239572D01*
X4623571Y-1211000D01*
X4652143Y-1168143D01*
X4666428Y-1153857D01*
X4823571Y-1325286D02*
X4795000Y-1311000D01*
X4780714Y-1296714D01*
X4766428Y-1268143D01*
X4766428Y-1253857D01*
X4780714Y-1225286D01*
X4795000Y-1211000D01*
X4823571Y-1196714D01*
X4880714Y-1196714D01*
X4909286Y-1211000D01*
X4923571Y-1225286D01*
X4937857Y-1253857D01*
X4937857Y-1268143D01*
X4923571Y-1296714D01*
X4909286Y-1311000D01*
X4880714Y-1325286D01*
X4823571Y-1325286D01*
X4795000Y-1339572D01*
X4780714Y-1353857D01*
X4766428Y-1382429D01*
X4766428Y-1439571D01*
X4780714Y-1468143D01*
X4795000Y-1482429D01*
X4823571Y-1496714D01*
X4880714Y-1496714D01*
X4909286Y-1482429D01*
X4923571Y-1468143D01*
X4937857Y-1439571D01*
X4937857Y-1382429D01*
X4923571Y-1353857D01*
X4909286Y-1339572D01*
X4880714Y-1325286D01*
X5295000Y-1496714D02*
X5295000Y-1196714D01*
X5423571Y-1496714D02*
X5423571Y-1339572D01*
X5409286Y-1311000D01*
X5380714Y-1296714D01*
X5337857Y-1296714D01*
X5309286Y-1311000D01*
X5295000Y-1325286D01*
X5609285Y-1496714D02*
X5580714Y-1482429D01*
X5566428Y-1468143D01*
X5552143Y-1439571D01*
X5552143Y-1353857D01*
X5566428Y-1325286D01*
X5580714Y-1311000D01*
X5609285Y-1296714D01*
X5652143Y-1296714D01*
X5680714Y-1311000D01*
X5695000Y-1325286D01*
X5709285Y-1353857D01*
X5709285Y-1439571D01*
X5695000Y-1468143D01*
X5680714Y-1482429D01*
X5652143Y-1496714D01*
X5609285Y-1496714D01*
X5880714Y-1496714D02*
X5852143Y-1482429D01*
X5837857Y-1453857D01*
X5837857Y-1196714D01*
X6109286Y-1482429D02*
X6080714Y-1496714D01*
X6023571Y-1496714D01*
X5995000Y-1482429D01*
X5980714Y-1453857D01*
X5980714Y-1339572D01*
X5995000Y-1311000D01*
X6023571Y-1296714D01*
X6080714Y-1296714D01*
X6109286Y-1311000D01*
X6123571Y-1339572D01*
X6123571Y-1368143D01*
X5980714Y-1396714D01*
X6237857Y-1482429D02*
X6266428Y-1496714D01*
X6323571Y-1496714D01*
X6352143Y-1482429D01*
X6366428Y-1453857D01*
X6366428Y-1439571D01*
X6352143Y-1411000D01*
X6323571Y-1396714D01*
X6280714Y-1396714D01*
X6252143Y-1382429D01*
X6237857Y-1353857D01*
X6237857Y-1339572D01*
X6252143Y-1311000D01*
X6280714Y-1296714D01*
X6323571Y-1296714D01*
X6352143Y-1311000D01*
X6466428Y-1611000D02*
X6480714Y-1596714D01*
X6509286Y-1553857D01*
X6523571Y-1525286D01*
X6537857Y-1482429D01*
X6552143Y-1411000D01*
X6552143Y-1353857D01*
X6537857Y-1282429D01*
X6523571Y-1239572D01*
X6509286Y-1211000D01*
X6480714Y-1168143D01*
X6466428Y-1153857D01*
X-54276Y-1707724D02*
X-54276Y-1806276D01*
X-103552Y-1757000D02*
X-5000Y-1757000D01*
X323571Y-1592714D02*
X352143Y-1592714D01*
X380714Y-1607000D01*
X395000Y-1621286D01*
X409286Y-1649857D01*
X423571Y-1707000D01*
X423571Y-1778429D01*
X409286Y-1835571D01*
X395000Y-1864143D01*
X380714Y-1878429D01*
X352143Y-1892714D01*
X323571Y-1892714D01*
X295000Y-1878429D01*
X280714Y-1864143D01*
X266429Y-1835571D01*
X252143Y-1778429D01*
X252143Y-1707000D01*
X266429Y-1649857D01*
X280714Y-1621286D01*
X295000Y-1607000D01*
X323571Y-1592714D01*
X552143Y-1864143D02*
X566429Y-1878429D01*
X552143Y-1892714D01*
X537857Y-1878429D01*
X552143Y-1864143D01*
X552143Y-1892714D01*
X709286Y-1892714D02*
X766428Y-1892714D01*
X795000Y-1878429D01*
X809286Y-1864143D01*
X837857Y-1821286D01*
X852143Y-1764143D01*
X852143Y-1649857D01*
X837857Y-1621286D01*
X823571Y-1607000D01*
X795000Y-1592714D01*
X737857Y-1592714D01*
X709286Y-1607000D01*
X695000Y-1621286D01*
X680714Y-1649857D01*
X680714Y-1721286D01*
X695000Y-1749857D01*
X709286Y-1764143D01*
X737857Y-1778429D01*
X795000Y-1778429D01*
X823571Y-1764143D01*
X837857Y-1749857D01*
X852143Y-1721286D01*
X995000Y-1892714D02*
X1052143Y-1892714D01*
X1080714Y-1878429D01*
X1095000Y-1864143D01*
X1123571Y-1821286D01*
X1137857Y-1764143D01*
X1137857Y-1649857D01*
X1123571Y-1621286D01*
X1109286Y-1607000D01*
X1080714Y-1592714D01*
X1023571Y-1592714D01*
X995000Y-1607000D01*
X980714Y-1621286D01*
X966428Y-1649857D01*
X966428Y-1721286D01*
X980714Y-1749857D01*
X995000Y-1764143D01*
X1023571Y-1778429D01*
X1080714Y-1778429D01*
X1109286Y-1764143D01*
X1123571Y-1749857D01*
X1137857Y-1721286D01*
X1266429Y-1892714D02*
X1266429Y-1692714D01*
X1266429Y-1721286D02*
X1280714Y-1707000D01*
X1309286Y-1692714D01*
X1352143Y-1692714D01*
X1380714Y-1707000D01*
X1395000Y-1735571D01*
X1395000Y-1892714D01*
X1395000Y-1735571D02*
X1409286Y-1707000D01*
X1437857Y-1692714D01*
X1480714Y-1692714D01*
X1509286Y-1707000D01*
X1523571Y-1735571D01*
X1523571Y-1892714D01*
X1666428Y-1892714D02*
X1666428Y-1692714D01*
X1666428Y-1721286D02*
X1680714Y-1707000D01*
X1709286Y-1692714D01*
X1752143Y-1692714D01*
X1780714Y-1707000D01*
X1795000Y-1735571D01*
X1795000Y-1892714D01*
X1795000Y-1735571D02*
X1809286Y-1707000D01*
X1837857Y-1692714D01*
X1880714Y-1692714D01*
X1909286Y-1707000D01*
X1923571Y-1735571D01*
X1923571Y-1892714D01*
X2509286Y-1578429D02*
X2252143Y-1964143D01*
X2895000Y-1592714D02*
X2923571Y-1592714D01*
X2952143Y-1607000D01*
X2966428Y-1621286D01*
X2980714Y-1649857D01*
X2995000Y-1707000D01*
X2995000Y-1778429D01*
X2980714Y-1835571D01*
X2966428Y-1864143D01*
X2952143Y-1878429D01*
X2923571Y-1892714D01*
X2895000Y-1892714D01*
X2866428Y-1878429D01*
X2852143Y-1864143D01*
X2837857Y-1835571D01*
X2823571Y-1778429D01*
X2823571Y-1707000D01*
X2837857Y-1649857D01*
X2852143Y-1621286D01*
X2866428Y-1607000D01*
X2895000Y-1592714D01*
X3123571Y-1864143D02*
X3137857Y-1878429D01*
X3123571Y-1892714D01*
X3109286Y-1878429D01*
X3123571Y-1864143D01*
X3123571Y-1892714D01*
X3323571Y-1592714D02*
X3352143Y-1592714D01*
X3380714Y-1607000D01*
X3395000Y-1621286D01*
X3409285Y-1649857D01*
X3423571Y-1707000D01*
X3423571Y-1778429D01*
X3409285Y-1835571D01*
X3395000Y-1864143D01*
X3380714Y-1878429D01*
X3352143Y-1892714D01*
X3323571Y-1892714D01*
X3295000Y-1878429D01*
X3280714Y-1864143D01*
X3266428Y-1835571D01*
X3252143Y-1778429D01*
X3252143Y-1707000D01*
X3266428Y-1649857D01*
X3280714Y-1621286D01*
X3295000Y-1607000D01*
X3323571Y-1592714D01*
X3523571Y-1592714D02*
X3709285Y-1592714D01*
X3609285Y-1707000D01*
X3652143Y-1707000D01*
X3680714Y-1721286D01*
X3695000Y-1735571D01*
X3709285Y-1764143D01*
X3709285Y-1835571D01*
X3695000Y-1864143D01*
X3680714Y-1878429D01*
X3652143Y-1892714D01*
X3566428Y-1892714D01*
X3537857Y-1878429D01*
X3523571Y-1864143D01*
X3852143Y-1892714D02*
X3909285Y-1892714D01*
X3937857Y-1878429D01*
X3952143Y-1864143D01*
X3980714Y-1821286D01*
X3995000Y-1764143D01*
X3995000Y-1649857D01*
X3980714Y-1621286D01*
X3966428Y-1607000D01*
X3937857Y-1592714D01*
X3880714Y-1592714D01*
X3852143Y-1607000D01*
X3837857Y-1621286D01*
X3823571Y-1649857D01*
X3823571Y-1721286D01*
X3837857Y-1749857D01*
X3852143Y-1764143D01*
X3880714Y-1778429D01*
X3937857Y-1778429D01*
X3966428Y-1764143D01*
X3980714Y-1749857D01*
X3995000Y-1721286D01*
X4109286Y-1592714D02*
X4109286Y-1649857D01*
X4223571Y-1592714D02*
X4223571Y-1649857D01*
X4666428Y-2007000D02*
X4652143Y-1992714D01*
X4623571Y-1949857D01*
X4609286Y-1921286D01*
X4595000Y-1878429D01*
X4580714Y-1807000D01*
X4580714Y-1749857D01*
X4595000Y-1678429D01*
X4609286Y-1635571D01*
X4623571Y-1607000D01*
X4652143Y-1564143D01*
X4666428Y-1549857D01*
X4766428Y-1621286D02*
X4780714Y-1607000D01*
X4809286Y-1592714D01*
X4880714Y-1592714D01*
X4909286Y-1607000D01*
X4923571Y-1621286D01*
X4937857Y-1649857D01*
X4937857Y-1678429D01*
X4923571Y-1721286D01*
X4752143Y-1892714D01*
X4937857Y-1892714D01*
X5295000Y-1892714D02*
X5295000Y-1592714D01*
X5423571Y-1892714D02*
X5423571Y-1735571D01*
X5409286Y-1707000D01*
X5380714Y-1692714D01*
X5337857Y-1692714D01*
X5309286Y-1707000D01*
X5295000Y-1721286D01*
X5609285Y-1892714D02*
X5580714Y-1878429D01*
X5566428Y-1864143D01*
X5552143Y-1835571D01*
X5552143Y-1749857D01*
X5566428Y-1721286D01*
X5580714Y-1707000D01*
X5609285Y-1692714D01*
X5652143Y-1692714D01*
X5680714Y-1707000D01*
X5695000Y-1721286D01*
X5709285Y-1749857D01*
X5709285Y-1835571D01*
X5695000Y-1864143D01*
X5680714Y-1878429D01*
X5652143Y-1892714D01*
X5609285Y-1892714D01*
X5880714Y-1892714D02*
X5852143Y-1878429D01*
X5837857Y-1849857D01*
X5837857Y-1592714D01*
X6109286Y-1878429D02*
X6080714Y-1892714D01*
X6023571Y-1892714D01*
X5995000Y-1878429D01*
X5980714Y-1849857D01*
X5980714Y-1735571D01*
X5995000Y-1707000D01*
X6023571Y-1692714D01*
X6080714Y-1692714D01*
X6109286Y-1707000D01*
X6123571Y-1735571D01*
X6123571Y-1764143D01*
X5980714Y-1792714D01*
X6237857Y-1878429D02*
X6266428Y-1892714D01*
X6323571Y-1892714D01*
X6352143Y-1878429D01*
X6366428Y-1849857D01*
X6366428Y-1835571D01*
X6352143Y-1807000D01*
X6323571Y-1792714D01*
X6280714Y-1792714D01*
X6252143Y-1778429D01*
X6237857Y-1749857D01*
X6237857Y-1735571D01*
X6252143Y-1707000D01*
X6280714Y-1692714D01*
X6323571Y-1692714D01*
X6352143Y-1707000D01*
X6466428Y-2007000D02*
X6480714Y-1992714D01*
X6509286Y-1949857D01*
X6523571Y-1921286D01*
X6537857Y-1878429D01*
X6552143Y-1807000D01*
X6552143Y-1749857D01*
X6537857Y-1678429D01*
X6523571Y-1635571D01*
X6509286Y-1607000D01*
X6480714Y-1564143D01*
X6466428Y-1549857D01*
X-19470Y-2187934D02*
X-19470Y-2118067D01*
X-89337Y-2118067D01*
X-89337Y-2187934D01*
X-19470Y-2187934D01*
X323571Y-1988714D02*
X352143Y-1988714D01*
X380714Y-2003000D01*
X395000Y-2017286D01*
X409286Y-2045857D01*
X423571Y-2103000D01*
X423571Y-2174429D01*
X409286Y-2231572D01*
X395000Y-2260143D01*
X380714Y-2274429D01*
X352143Y-2288714D01*
X323571Y-2288714D01*
X295000Y-2274429D01*
X280714Y-2260143D01*
X266429Y-2231572D01*
X252143Y-2174429D01*
X252143Y-2103000D01*
X266429Y-2045857D01*
X280714Y-2017286D01*
X295000Y-2003000D01*
X323571Y-1988714D01*
X552143Y-2260143D02*
X566429Y-2274429D01*
X552143Y-2288714D01*
X537857Y-2274429D01*
X552143Y-2260143D01*
X552143Y-2288714D01*
X709286Y-2288714D02*
X766428Y-2288714D01*
X795000Y-2274429D01*
X809286Y-2260143D01*
X837857Y-2217286D01*
X852143Y-2160143D01*
X852143Y-2045857D01*
X837857Y-2017286D01*
X823571Y-2003000D01*
X795000Y-1988714D01*
X737857Y-1988714D01*
X709286Y-2003000D01*
X695000Y-2017286D01*
X680714Y-2045857D01*
X680714Y-2117286D01*
X695000Y-2145857D01*
X709286Y-2160143D01*
X737857Y-2174429D01*
X795000Y-2174429D01*
X823571Y-2160143D01*
X837857Y-2145857D01*
X852143Y-2117286D01*
X995000Y-2288714D02*
X1052143Y-2288714D01*
X1080714Y-2274429D01*
X1095000Y-2260143D01*
X1123571Y-2217286D01*
X1137857Y-2160143D01*
X1137857Y-2045857D01*
X1123571Y-2017286D01*
X1109286Y-2003000D01*
X1080714Y-1988714D01*
X1023571Y-1988714D01*
X995000Y-2003000D01*
X980714Y-2017286D01*
X966428Y-2045857D01*
X966428Y-2117286D01*
X980714Y-2145857D01*
X995000Y-2160143D01*
X1023571Y-2174429D01*
X1080714Y-2174429D01*
X1109286Y-2160143D01*
X1123571Y-2145857D01*
X1137857Y-2117286D01*
X1266429Y-2288714D02*
X1266429Y-2088714D01*
X1266429Y-2117286D02*
X1280714Y-2103000D01*
X1309286Y-2088714D01*
X1352143Y-2088714D01*
X1380714Y-2103000D01*
X1395000Y-2131572D01*
X1395000Y-2288714D01*
X1395000Y-2131572D02*
X1409286Y-2103000D01*
X1437857Y-2088714D01*
X1480714Y-2088714D01*
X1509286Y-2103000D01*
X1523571Y-2131572D01*
X1523571Y-2288714D01*
X1666428Y-2288714D02*
X1666428Y-2088714D01*
X1666428Y-2117286D02*
X1680714Y-2103000D01*
X1709286Y-2088714D01*
X1752143Y-2088714D01*
X1780714Y-2103000D01*
X1795000Y-2131572D01*
X1795000Y-2288714D01*
X1795000Y-2131572D02*
X1809286Y-2103000D01*
X1837857Y-2088714D01*
X1880714Y-2088714D01*
X1909286Y-2103000D01*
X1923571Y-2131572D01*
X1923571Y-2288714D01*
X2509286Y-1974429D02*
X2252143Y-2360143D01*
X2895000Y-1988714D02*
X2923571Y-1988714D01*
X2952143Y-2003000D01*
X2966428Y-2017286D01*
X2980714Y-2045857D01*
X2995000Y-2103000D01*
X2995000Y-2174429D01*
X2980714Y-2231572D01*
X2966428Y-2260143D01*
X2952143Y-2274429D01*
X2923571Y-2288714D01*
X2895000Y-2288714D01*
X2866428Y-2274429D01*
X2852143Y-2260143D01*
X2837857Y-2231572D01*
X2823571Y-2174429D01*
X2823571Y-2103000D01*
X2837857Y-2045857D01*
X2852143Y-2017286D01*
X2866428Y-2003000D01*
X2895000Y-1988714D01*
X3123571Y-2260143D02*
X3137857Y-2274429D01*
X3123571Y-2288714D01*
X3109286Y-2274429D01*
X3123571Y-2260143D01*
X3123571Y-2288714D01*
X3323571Y-1988714D02*
X3352143Y-1988714D01*
X3380714Y-2003000D01*
X3395000Y-2017286D01*
X3409285Y-2045857D01*
X3423571Y-2103000D01*
X3423571Y-2174429D01*
X3409285Y-2231572D01*
X3395000Y-2260143D01*
X3380714Y-2274429D01*
X3352143Y-2288714D01*
X3323571Y-2288714D01*
X3295000Y-2274429D01*
X3280714Y-2260143D01*
X3266428Y-2231572D01*
X3252143Y-2174429D01*
X3252143Y-2103000D01*
X3266428Y-2045857D01*
X3280714Y-2017286D01*
X3295000Y-2003000D01*
X3323571Y-1988714D01*
X3523571Y-1988714D02*
X3709285Y-1988714D01*
X3609285Y-2103000D01*
X3652143Y-2103000D01*
X3680714Y-2117286D01*
X3695000Y-2131572D01*
X3709285Y-2160143D01*
X3709285Y-2231572D01*
X3695000Y-2260143D01*
X3680714Y-2274429D01*
X3652143Y-2288714D01*
X3566428Y-2288714D01*
X3537857Y-2274429D01*
X3523571Y-2260143D01*
X3852143Y-2288714D02*
X3909285Y-2288714D01*
X3937857Y-2274429D01*
X3952143Y-2260143D01*
X3980714Y-2217286D01*
X3995000Y-2160143D01*
X3995000Y-2045857D01*
X3980714Y-2017286D01*
X3966428Y-2003000D01*
X3937857Y-1988714D01*
X3880714Y-1988714D01*
X3852143Y-2003000D01*
X3837857Y-2017286D01*
X3823571Y-2045857D01*
X3823571Y-2117286D01*
X3837857Y-2145857D01*
X3852143Y-2160143D01*
X3880714Y-2174429D01*
X3937857Y-2174429D01*
X3966428Y-2160143D01*
X3980714Y-2145857D01*
X3995000Y-2117286D01*
X4109286Y-1988714D02*
X4109286Y-2045857D01*
X4223571Y-1988714D02*
X4223571Y-2045857D01*
X4666428Y-2403000D02*
X4652143Y-2388714D01*
X4623571Y-2345857D01*
X4609286Y-2317286D01*
X4595000Y-2274429D01*
X4580714Y-2203000D01*
X4580714Y-2145857D01*
X4595000Y-2074429D01*
X4609286Y-2031571D01*
X4623571Y-2003000D01*
X4652143Y-1960143D01*
X4666428Y-1945857D01*
X4937857Y-2288714D02*
X4766428Y-2288714D01*
X4852143Y-2288714D02*
X4852143Y-1988714D01*
X4823571Y-2031571D01*
X4795000Y-2060143D01*
X4766428Y-2074429D01*
X5295000Y-2288714D02*
X5295000Y-1988714D01*
X5423571Y-2288714D02*
X5423571Y-2131572D01*
X5409286Y-2103000D01*
X5380714Y-2088714D01*
X5337857Y-2088714D01*
X5309286Y-2103000D01*
X5295000Y-2117286D01*
X5609285Y-2288714D02*
X5580714Y-2274429D01*
X5566428Y-2260143D01*
X5552143Y-2231572D01*
X5552143Y-2145857D01*
X5566428Y-2117286D01*
X5580714Y-2103000D01*
X5609285Y-2088714D01*
X5652143Y-2088714D01*
X5680714Y-2103000D01*
X5695000Y-2117286D01*
X5709285Y-2145857D01*
X5709285Y-2231572D01*
X5695000Y-2260143D01*
X5680714Y-2274429D01*
X5652143Y-2288714D01*
X5609285Y-2288714D01*
X5880714Y-2288714D02*
X5852143Y-2274429D01*
X5837857Y-2245857D01*
X5837857Y-1988714D01*
X6109286Y-2274429D02*
X6080714Y-2288714D01*
X6023571Y-2288714D01*
X5995000Y-2274429D01*
X5980714Y-2245857D01*
X5980714Y-2131572D01*
X5995000Y-2103000D01*
X6023571Y-2088714D01*
X6080714Y-2088714D01*
X6109286Y-2103000D01*
X6123571Y-2131572D01*
X6123571Y-2160143D01*
X5980714Y-2188714D01*
X6223571Y-2403000D02*
X6237857Y-2388714D01*
X6266428Y-2345857D01*
X6280714Y-2317286D01*
X6295000Y-2274429D01*
X6309286Y-2203000D01*
X6309286Y-2145857D01*
X6295000Y-2074429D01*
X6280714Y-2031571D01*
X6266428Y-2003000D01*
X6237857Y-1960143D01*
X6223571Y-1945857D01*
X-123491Y-2667491D02*
X-5000Y-2549000D01*
X-123491Y-2430509D01*
X-241982Y-2549000D01*
X-123491Y-2667491D01*
X252143Y-2413286D02*
X266429Y-2399000D01*
X295000Y-2384714D01*
X366428Y-2384714D01*
X395000Y-2399000D01*
X409286Y-2413286D01*
X423571Y-2441857D01*
X423571Y-2470429D01*
X409286Y-2513286D01*
X237857Y-2684714D01*
X423571Y-2684714D01*
X552143Y-2656143D02*
X566429Y-2670429D01*
X552143Y-2684714D01*
X537857Y-2670429D01*
X552143Y-2656143D01*
X552143Y-2684714D01*
X666428Y-2384714D02*
X852143Y-2384714D01*
X752143Y-2499000D01*
X795000Y-2499000D01*
X823571Y-2513286D01*
X837857Y-2527572D01*
X852143Y-2556143D01*
X852143Y-2627572D01*
X837857Y-2656143D01*
X823571Y-2670429D01*
X795000Y-2684714D01*
X709286Y-2684714D01*
X680714Y-2670429D01*
X666428Y-2656143D01*
X952143Y-2384714D02*
X1152143Y-2384714D01*
X1023571Y-2684714D01*
X1266429Y-2684714D02*
X1266429Y-2484714D01*
X1266429Y-2513286D02*
X1280714Y-2499000D01*
X1309286Y-2484714D01*
X1352143Y-2484714D01*
X1380714Y-2499000D01*
X1395000Y-2527572D01*
X1395000Y-2684714D01*
X1395000Y-2527572D02*
X1409286Y-2499000D01*
X1437857Y-2484714D01*
X1480714Y-2484714D01*
X1509286Y-2499000D01*
X1523571Y-2527572D01*
X1523571Y-2684714D01*
X1666428Y-2684714D02*
X1666428Y-2484714D01*
X1666428Y-2513286D02*
X1680714Y-2499000D01*
X1709286Y-2484714D01*
X1752143Y-2484714D01*
X1780714Y-2499000D01*
X1795000Y-2527572D01*
X1795000Y-2684714D01*
X1795000Y-2527572D02*
X1809286Y-2499000D01*
X1837857Y-2484714D01*
X1880714Y-2484714D01*
X1909286Y-2499000D01*
X1923571Y-2527572D01*
X1923571Y-2684714D01*
X2509286Y-2370429D02*
X2252143Y-2756143D01*
X2895000Y-2384714D02*
X2923571Y-2384714D01*
X2952143Y-2399000D01*
X2966428Y-2413286D01*
X2980714Y-2441857D01*
X2995000Y-2499000D01*
X2995000Y-2570429D01*
X2980714Y-2627572D01*
X2966428Y-2656143D01*
X2952143Y-2670429D01*
X2923571Y-2684714D01*
X2895000Y-2684714D01*
X2866428Y-2670429D01*
X2852143Y-2656143D01*
X2837857Y-2627572D01*
X2823571Y-2570429D01*
X2823571Y-2499000D01*
X2837857Y-2441857D01*
X2852143Y-2413286D01*
X2866428Y-2399000D01*
X2895000Y-2384714D01*
X3123571Y-2656143D02*
X3137857Y-2670429D01*
X3123571Y-2684714D01*
X3109286Y-2670429D01*
X3123571Y-2656143D01*
X3123571Y-2684714D01*
X3323571Y-2384714D02*
X3352143Y-2384714D01*
X3380714Y-2399000D01*
X3395000Y-2413286D01*
X3409285Y-2441857D01*
X3423571Y-2499000D01*
X3423571Y-2570429D01*
X3409285Y-2627572D01*
X3395000Y-2656143D01*
X3380714Y-2670429D01*
X3352143Y-2684714D01*
X3323571Y-2684714D01*
X3295000Y-2670429D01*
X3280714Y-2656143D01*
X3266428Y-2627572D01*
X3252143Y-2570429D01*
X3252143Y-2499000D01*
X3266428Y-2441857D01*
X3280714Y-2413286D01*
X3295000Y-2399000D01*
X3323571Y-2384714D01*
X3566428Y-2684714D02*
X3623571Y-2684714D01*
X3652143Y-2670429D01*
X3666428Y-2656143D01*
X3695000Y-2613286D01*
X3709285Y-2556143D01*
X3709285Y-2441857D01*
X3695000Y-2413286D01*
X3680714Y-2399000D01*
X3652143Y-2384714D01*
X3595000Y-2384714D01*
X3566428Y-2399000D01*
X3552143Y-2413286D01*
X3537857Y-2441857D01*
X3537857Y-2513286D01*
X3552143Y-2541857D01*
X3566428Y-2556143D01*
X3595000Y-2570429D01*
X3652143Y-2570429D01*
X3680714Y-2556143D01*
X3695000Y-2541857D01*
X3709285Y-2513286D01*
X3809285Y-2384714D02*
X3995000Y-2384714D01*
X3895000Y-2499000D01*
X3937857Y-2499000D01*
X3966428Y-2513286D01*
X3980714Y-2527572D01*
X3995000Y-2556143D01*
X3995000Y-2627572D01*
X3980714Y-2656143D01*
X3966428Y-2670429D01*
X3937857Y-2684714D01*
X3852143Y-2684714D01*
X3823571Y-2670429D01*
X3809285Y-2656143D01*
X4109286Y-2384714D02*
X4109286Y-2441857D01*
X4223571Y-2384714D02*
X4223571Y-2441857D01*
X4666428Y-2799000D02*
X4652143Y-2784714D01*
X4623571Y-2741857D01*
X4609286Y-2713286D01*
X4595000Y-2670429D01*
X4580714Y-2599000D01*
X4580714Y-2541857D01*
X4595000Y-2470429D01*
X4609286Y-2427572D01*
X4623571Y-2399000D01*
X4652143Y-2356143D01*
X4666428Y-2341857D01*
X4752143Y-2384714D02*
X4937857Y-2384714D01*
X4837857Y-2499000D01*
X4880714Y-2499000D01*
X4909286Y-2513286D01*
X4923571Y-2527572D01*
X4937857Y-2556143D01*
X4937857Y-2627572D01*
X4923571Y-2656143D01*
X4909286Y-2670429D01*
X4880714Y-2684714D01*
X4795000Y-2684714D01*
X4766428Y-2670429D01*
X4752143Y-2656143D01*
X5295000Y-2684714D02*
X5295000Y-2384714D01*
X5423571Y-2684714D02*
X5423571Y-2527572D01*
X5409286Y-2499000D01*
X5380714Y-2484714D01*
X5337857Y-2484714D01*
X5309286Y-2499000D01*
X5295000Y-2513286D01*
X5609285Y-2684714D02*
X5580714Y-2670429D01*
X5566428Y-2656143D01*
X5552143Y-2627572D01*
X5552143Y-2541857D01*
X5566428Y-2513286D01*
X5580714Y-2499000D01*
X5609285Y-2484714D01*
X5652143Y-2484714D01*
X5680714Y-2499000D01*
X5695000Y-2513286D01*
X5709285Y-2541857D01*
X5709285Y-2627572D01*
X5695000Y-2656143D01*
X5680714Y-2670429D01*
X5652143Y-2684714D01*
X5609285Y-2684714D01*
X5880714Y-2684714D02*
X5852143Y-2670429D01*
X5837857Y-2641857D01*
X5837857Y-2384714D01*
X6109286Y-2670429D02*
X6080714Y-2684714D01*
X6023571Y-2684714D01*
X5995000Y-2670429D01*
X5980714Y-2641857D01*
X5980714Y-2527572D01*
X5995000Y-2499000D01*
X6023571Y-2484714D01*
X6080714Y-2484714D01*
X6109286Y-2499000D01*
X6123571Y-2527572D01*
X6123571Y-2556143D01*
X5980714Y-2584714D01*
X6237857Y-2670429D02*
X6266428Y-2684714D01*
X6323571Y-2684714D01*
X6352143Y-2670429D01*
X6366428Y-2641857D01*
X6366428Y-2627572D01*
X6352143Y-2599000D01*
X6323571Y-2584714D01*
X6280714Y-2584714D01*
X6252143Y-2570429D01*
X6237857Y-2541857D01*
X6237857Y-2527572D01*
X6252143Y-2499000D01*
X6280714Y-2484714D01*
X6323571Y-2484714D01*
X6352143Y-2499000D01*
X6466428Y-2799000D02*
X6480714Y-2784714D01*
X6509286Y-2741857D01*
X6523571Y-2713286D01*
X6537857Y-2670429D01*
X6552143Y-2599000D01*
X6552143Y-2541857D01*
X6537857Y-2470429D01*
X6523571Y-2427572D01*
X6509286Y-2399000D01*
X6480714Y-2356143D01*
X6466428Y-2341857D01*
X-242236Y-2826382D02*
X-5000Y-3063618D01*
X-5000Y-2826382D02*
X-242236Y-3063618D01*
X-5000Y-2945000D02*
G75*
G03X-5000Y-2945000I-118618J0D01*
G01*
X252143Y-2809286D02*
X266429Y-2795000D01*
X295000Y-2780714D01*
X366428Y-2780714D01*
X395000Y-2795000D01*
X409286Y-2809286D01*
X423571Y-2837857D01*
X423571Y-2866429D01*
X409286Y-2909286D01*
X237857Y-3080714D01*
X423571Y-3080714D01*
X552143Y-3052143D02*
X566429Y-3066429D01*
X552143Y-3080714D01*
X537857Y-3066429D01*
X552143Y-3052143D01*
X552143Y-3080714D01*
X666428Y-2780714D02*
X852143Y-2780714D01*
X752143Y-2895000D01*
X795000Y-2895000D01*
X823571Y-2909286D01*
X837857Y-2923571D01*
X852143Y-2952143D01*
X852143Y-3023571D01*
X837857Y-3052143D01*
X823571Y-3066429D01*
X795000Y-3080714D01*
X709286Y-3080714D01*
X680714Y-3066429D01*
X666428Y-3052143D01*
X952143Y-2780714D02*
X1152143Y-2780714D01*
X1023571Y-3080714D01*
X1266429Y-3080714D02*
X1266429Y-2880714D01*
X1266429Y-2909286D02*
X1280714Y-2895000D01*
X1309286Y-2880714D01*
X1352143Y-2880714D01*
X1380714Y-2895000D01*
X1395000Y-2923571D01*
X1395000Y-3080714D01*
X1395000Y-2923571D02*
X1409286Y-2895000D01*
X1437857Y-2880714D01*
X1480714Y-2880714D01*
X1509286Y-2895000D01*
X1523571Y-2923571D01*
X1523571Y-3080714D01*
X1666428Y-3080714D02*
X1666428Y-2880714D01*
X1666428Y-2909286D02*
X1680714Y-2895000D01*
X1709286Y-2880714D01*
X1752143Y-2880714D01*
X1780714Y-2895000D01*
X1795000Y-2923571D01*
X1795000Y-3080714D01*
X1795000Y-2923571D02*
X1809286Y-2895000D01*
X1837857Y-2880714D01*
X1880714Y-2880714D01*
X1909286Y-2895000D01*
X1923571Y-2923571D01*
X1923571Y-3080714D01*
X2509286Y-2766429D02*
X2252143Y-3152143D01*
X2895000Y-2780714D02*
X2923571Y-2780714D01*
X2952143Y-2795000D01*
X2966428Y-2809286D01*
X2980714Y-2837857D01*
X2995000Y-2895000D01*
X2995000Y-2966429D01*
X2980714Y-3023571D01*
X2966428Y-3052143D01*
X2952143Y-3066429D01*
X2923571Y-3080714D01*
X2895000Y-3080714D01*
X2866428Y-3066429D01*
X2852143Y-3052143D01*
X2837857Y-3023571D01*
X2823571Y-2966429D01*
X2823571Y-2895000D01*
X2837857Y-2837857D01*
X2852143Y-2809286D01*
X2866428Y-2795000D01*
X2895000Y-2780714D01*
X3123571Y-3052143D02*
X3137857Y-3066429D01*
X3123571Y-3080714D01*
X3109286Y-3066429D01*
X3123571Y-3052143D01*
X3123571Y-3080714D01*
X3323571Y-2780714D02*
X3352143Y-2780714D01*
X3380714Y-2795000D01*
X3395000Y-2809286D01*
X3409285Y-2837857D01*
X3423571Y-2895000D01*
X3423571Y-2966429D01*
X3409285Y-3023571D01*
X3395000Y-3052143D01*
X3380714Y-3066429D01*
X3352143Y-3080714D01*
X3323571Y-3080714D01*
X3295000Y-3066429D01*
X3280714Y-3052143D01*
X3266428Y-3023571D01*
X3252143Y-2966429D01*
X3252143Y-2895000D01*
X3266428Y-2837857D01*
X3280714Y-2809286D01*
X3295000Y-2795000D01*
X3323571Y-2780714D01*
X3566428Y-3080714D02*
X3623571Y-3080714D01*
X3652143Y-3066429D01*
X3666428Y-3052143D01*
X3695000Y-3009286D01*
X3709285Y-2952143D01*
X3709285Y-2837857D01*
X3695000Y-2809286D01*
X3680714Y-2795000D01*
X3652143Y-2780714D01*
X3595000Y-2780714D01*
X3566428Y-2795000D01*
X3552143Y-2809286D01*
X3537857Y-2837857D01*
X3537857Y-2909286D01*
X3552143Y-2937857D01*
X3566428Y-2952143D01*
X3595000Y-2966429D01*
X3652143Y-2966429D01*
X3680714Y-2952143D01*
X3695000Y-2937857D01*
X3709285Y-2909286D01*
X3809285Y-2780714D02*
X3995000Y-2780714D01*
X3895000Y-2895000D01*
X3937857Y-2895000D01*
X3966428Y-2909286D01*
X3980714Y-2923571D01*
X3995000Y-2952143D01*
X3995000Y-3023571D01*
X3980714Y-3052143D01*
X3966428Y-3066429D01*
X3937857Y-3080714D01*
X3852143Y-3080714D01*
X3823571Y-3066429D01*
X3809285Y-3052143D01*
X4109286Y-2780714D02*
X4109286Y-2837857D01*
X4223571Y-2780714D02*
X4223571Y-2837857D01*
X4666428Y-3195000D02*
X4652143Y-3180714D01*
X4623571Y-3137857D01*
X4609286Y-3109286D01*
X4595000Y-3066429D01*
X4580714Y-2995000D01*
X4580714Y-2937857D01*
X4595000Y-2866429D01*
X4609286Y-2823571D01*
X4623571Y-2795000D01*
X4652143Y-2752143D01*
X4666428Y-2737857D01*
X4937857Y-3080714D02*
X4766428Y-3080714D01*
X4852143Y-3080714D02*
X4852143Y-2780714D01*
X4823571Y-2823571D01*
X4795000Y-2852143D01*
X4766428Y-2866429D01*
X5295000Y-3080714D02*
X5295000Y-2780714D01*
X5423571Y-3080714D02*
X5423571Y-2923571D01*
X5409286Y-2895000D01*
X5380714Y-2880714D01*
X5337857Y-2880714D01*
X5309286Y-2895000D01*
X5295000Y-2909286D01*
X5609285Y-3080714D02*
X5580714Y-3066429D01*
X5566428Y-3052143D01*
X5552143Y-3023571D01*
X5552143Y-2937857D01*
X5566428Y-2909286D01*
X5580714Y-2895000D01*
X5609285Y-2880714D01*
X5652143Y-2880714D01*
X5680714Y-2895000D01*
X5695000Y-2909286D01*
X5709285Y-2937857D01*
X5709285Y-3023571D01*
X5695000Y-3052143D01*
X5680714Y-3066429D01*
X5652143Y-3080714D01*
X5609285Y-3080714D01*
X5880714Y-3080714D02*
X5852143Y-3066429D01*
X5837857Y-3037857D01*
X5837857Y-2780714D01*
X6109286Y-3066429D02*
X6080714Y-3080714D01*
X6023571Y-3080714D01*
X5995000Y-3066429D01*
X5980714Y-3037857D01*
X5980714Y-2923571D01*
X5995000Y-2895000D01*
X6023571Y-2880714D01*
X6080714Y-2880714D01*
X6109286Y-2895000D01*
X6123571Y-2923571D01*
X6123571Y-2952143D01*
X5980714Y-2980714D01*
X6223571Y-3195000D02*
X6237857Y-3180714D01*
X6266428Y-3137857D01*
X6280714Y-3109286D01*
X6295000Y-3066429D01*
X6309286Y-2995000D01*
X6309286Y-2937857D01*
X6295000Y-2866429D01*
X6280714Y-2823571D01*
X6266428Y-2795000D01*
X6237857Y-2752143D01*
X6223571Y-2737857D01*
X-304974Y-3191013D02*
X-5000Y-3490987D01*
X-5000Y-3191013D02*
X-304974Y-3490987D01*
X-154987Y-3191013D02*
X-154987Y-3490987D01*
X-304974Y-3341000D02*
X-5000Y-3341000D01*
X237857Y-3176714D02*
X423571Y-3176714D01*
X323571Y-3291000D01*
X366428Y-3291000D01*
X395000Y-3305286D01*
X409286Y-3319571D01*
X423571Y-3348143D01*
X423571Y-3419571D01*
X409286Y-3448143D01*
X395000Y-3462429D01*
X366428Y-3476714D01*
X280714Y-3476714D01*
X252143Y-3462429D01*
X237857Y-3448143D01*
X552143Y-3448143D02*
X566429Y-3462429D01*
X552143Y-3476714D01*
X537857Y-3462429D01*
X552143Y-3448143D01*
X552143Y-3476714D01*
X752143Y-3176714D02*
X780714Y-3176714D01*
X809286Y-3191000D01*
X823571Y-3205286D01*
X837857Y-3233857D01*
X852143Y-3291000D01*
X852143Y-3362429D01*
X837857Y-3419571D01*
X823571Y-3448143D01*
X809286Y-3462429D01*
X780714Y-3476714D01*
X752143Y-3476714D01*
X723571Y-3462429D01*
X709286Y-3448143D01*
X695000Y-3419571D01*
X680714Y-3362429D01*
X680714Y-3291000D01*
X695000Y-3233857D01*
X709286Y-3205286D01*
X723571Y-3191000D01*
X752143Y-3176714D01*
X1037857Y-3176714D02*
X1066429Y-3176714D01*
X1095000Y-3191000D01*
X1109286Y-3205286D01*
X1123571Y-3233857D01*
X1137857Y-3291000D01*
X1137857Y-3362429D01*
X1123571Y-3419571D01*
X1109286Y-3448143D01*
X1095000Y-3462429D01*
X1066429Y-3476714D01*
X1037857Y-3476714D01*
X1009286Y-3462429D01*
X995000Y-3448143D01*
X980714Y-3419571D01*
X966428Y-3362429D01*
X966428Y-3291000D01*
X980714Y-3233857D01*
X995000Y-3205286D01*
X1009286Y-3191000D01*
X1037857Y-3176714D01*
X1266429Y-3476714D02*
X1266429Y-3276714D01*
X1266429Y-3305286D02*
X1280714Y-3291000D01*
X1309286Y-3276714D01*
X1352143Y-3276714D01*
X1380714Y-3291000D01*
X1395000Y-3319571D01*
X1395000Y-3476714D01*
X1395000Y-3319571D02*
X1409286Y-3291000D01*
X1437857Y-3276714D01*
X1480714Y-3276714D01*
X1509286Y-3291000D01*
X1523571Y-3319571D01*
X1523571Y-3476714D01*
X1666428Y-3476714D02*
X1666428Y-3276714D01*
X1666428Y-3305286D02*
X1680714Y-3291000D01*
X1709286Y-3276714D01*
X1752143Y-3276714D01*
X1780714Y-3291000D01*
X1795000Y-3319571D01*
X1795000Y-3476714D01*
X1795000Y-3319571D02*
X1809286Y-3291000D01*
X1837857Y-3276714D01*
X1880714Y-3276714D01*
X1909286Y-3291000D01*
X1923571Y-3319571D01*
X1923571Y-3476714D01*
X2509286Y-3162429D02*
X2252143Y-3548143D01*
X2895000Y-3176714D02*
X2923571Y-3176714D01*
X2952143Y-3191000D01*
X2966428Y-3205286D01*
X2980714Y-3233857D01*
X2995000Y-3291000D01*
X2995000Y-3362429D01*
X2980714Y-3419571D01*
X2966428Y-3448143D01*
X2952143Y-3462429D01*
X2923571Y-3476714D01*
X2895000Y-3476714D01*
X2866428Y-3462429D01*
X2852143Y-3448143D01*
X2837857Y-3419571D01*
X2823571Y-3362429D01*
X2823571Y-3291000D01*
X2837857Y-3233857D01*
X2852143Y-3205286D01*
X2866428Y-3191000D01*
X2895000Y-3176714D01*
X3123571Y-3448143D02*
X3137857Y-3462429D01*
X3123571Y-3476714D01*
X3109286Y-3462429D01*
X3123571Y-3448143D01*
X3123571Y-3476714D01*
X3423571Y-3476714D02*
X3252143Y-3476714D01*
X3337857Y-3476714D02*
X3337857Y-3176714D01*
X3309285Y-3219571D01*
X3280714Y-3248143D01*
X3252143Y-3262429D01*
X3709285Y-3476714D02*
X3537857Y-3476714D01*
X3623571Y-3476714D02*
X3623571Y-3176714D01*
X3595000Y-3219571D01*
X3566428Y-3248143D01*
X3537857Y-3262429D01*
X3880714Y-3305286D02*
X3852143Y-3291000D01*
X3837857Y-3276714D01*
X3823571Y-3248143D01*
X3823571Y-3233857D01*
X3837857Y-3205286D01*
X3852143Y-3191000D01*
X3880714Y-3176714D01*
X3937857Y-3176714D01*
X3966428Y-3191000D01*
X3980714Y-3205286D01*
X3995000Y-3233857D01*
X3995000Y-3248143D01*
X3980714Y-3276714D01*
X3966428Y-3291000D01*
X3937857Y-3305286D01*
X3880714Y-3305286D01*
X3852143Y-3319571D01*
X3837857Y-3333857D01*
X3823571Y-3362429D01*
X3823571Y-3419571D01*
X3837857Y-3448143D01*
X3852143Y-3462429D01*
X3880714Y-3476714D01*
X3937857Y-3476714D01*
X3966428Y-3462429D01*
X3980714Y-3448143D01*
X3995000Y-3419571D01*
X3995000Y-3362429D01*
X3980714Y-3333857D01*
X3966428Y-3319571D01*
X3937857Y-3305286D01*
X4109286Y-3176714D02*
X4109286Y-3233857D01*
X4223571Y-3176714D02*
X4223571Y-3233857D01*
X4666428Y-3591000D02*
X4652143Y-3576714D01*
X4623571Y-3533857D01*
X4609286Y-3505286D01*
X4595000Y-3462429D01*
X4580714Y-3391000D01*
X4580714Y-3333857D01*
X4595000Y-3262429D01*
X4609286Y-3219571D01*
X4623571Y-3191000D01*
X4652143Y-3148143D01*
X4666428Y-3133857D01*
X4766428Y-3205286D02*
X4780714Y-3191000D01*
X4809286Y-3176714D01*
X4880714Y-3176714D01*
X4909286Y-3191000D01*
X4923571Y-3205286D01*
X4937857Y-3233857D01*
X4937857Y-3262429D01*
X4923571Y-3305286D01*
X4752143Y-3476714D01*
X4937857Y-3476714D01*
X5295000Y-3476714D02*
X5295000Y-3176714D01*
X5423571Y-3476714D02*
X5423571Y-3319571D01*
X5409286Y-3291000D01*
X5380714Y-3276714D01*
X5337857Y-3276714D01*
X5309286Y-3291000D01*
X5295000Y-3305286D01*
X5609285Y-3476714D02*
X5580714Y-3462429D01*
X5566428Y-3448143D01*
X5552143Y-3419571D01*
X5552143Y-3333857D01*
X5566428Y-3305286D01*
X5580714Y-3291000D01*
X5609285Y-3276714D01*
X5652143Y-3276714D01*
X5680714Y-3291000D01*
X5695000Y-3305286D01*
X5709285Y-3333857D01*
X5709285Y-3419571D01*
X5695000Y-3448143D01*
X5680714Y-3462429D01*
X5652143Y-3476714D01*
X5609285Y-3476714D01*
X5880714Y-3476714D02*
X5852143Y-3462429D01*
X5837857Y-3433857D01*
X5837857Y-3176714D01*
X6109286Y-3462429D02*
X6080714Y-3476714D01*
X6023571Y-3476714D01*
X5995000Y-3462429D01*
X5980714Y-3433857D01*
X5980714Y-3319571D01*
X5995000Y-3291000D01*
X6023571Y-3276714D01*
X6080714Y-3276714D01*
X6109286Y-3291000D01*
X6123571Y-3319571D01*
X6123571Y-3348143D01*
X5980714Y-3376714D01*
X6237857Y-3462429D02*
X6266428Y-3476714D01*
X6323571Y-3476714D01*
X6352143Y-3462429D01*
X6366428Y-3433857D01*
X6366428Y-3419571D01*
X6352143Y-3391000D01*
X6323571Y-3376714D01*
X6280714Y-3376714D01*
X6252143Y-3362429D01*
X6237857Y-3333857D01*
X6237857Y-3319571D01*
X6252143Y-3291000D01*
X6280714Y-3276714D01*
X6323571Y-3276714D01*
X6352143Y-3291000D01*
X6466428Y-3591000D02*
X6480714Y-3576714D01*
X6509286Y-3533857D01*
X6523571Y-3505286D01*
X6537857Y-3462429D01*
X6552143Y-3391000D01*
X6552143Y-3333857D01*
X6537857Y-3262429D01*
X6523571Y-3219571D01*
X6509286Y-3191000D01*
X6480714Y-3148143D01*
X6466428Y-3133857D01*
M02*
